{
  "uuid": "d09a9eeb-f7c1-48e3-bd59-673136a9c496-tc-0-1006",
  "name": "NUnitTestOnFramework.TestsFramework.SuccessLoginFramework(\"tomate8886@omibrown.com\",\"C/9;<*eUMSUTDR+\")",
  "children": [
    "37e6630b-8352-4ca1-aeb9-e440d549b422-tr-0-1008"
  ],
  "befores": [
    {
      "name": "SetUp",
      "status": "passed",
      "statusDetails": {
        "known": false,
        "muted": false,
        "flaky": false
      },
      "stage": "finished",
      "steps": [],
      "attachments": [],
      "parameters": [],
      "start": 1636577076241,
      "stop": 1636577076241
    }
  ],
  "afters": [
    {
      "name": "TearDown",
      "status": "passed",
      "statusDetails": {
        "known": false,
        "muted": false,
        "flaky": false
      },
      "stage": "finished",
      "steps": [],
      "attachments": [],
      "parameters": [],
      "start": 1636577076241,
      "stop": 1636577076241
    },
    {
      "name": "OneTimeTearDown",
      "status": "none",
      "statusDetails": {
        "known": false,
        "muted": false,
        "flaky": false,
        "message": "It's not possible to get status of OneTimeTearDown",
        "trace": "See Allure.NUnit wiki"
      },
      "stage": "finished",
      "steps": [],
      "attachments": [],
      "parameters": [],
      "start": 1636577076241,
      "stop": 1636577076241
    }
  ],
  "links": [],
  "start": 1636577068514,
  "stop": 1636577076241
}