{
  "uuid": "1dc6c747-ecd3-4995-a19f-cbd5c4b29b38-tc-0-1006",
  "name": "NUnitTestOnFramework.TestsFramework.SuccessLoginApiFramework(\"nkocura3@gmail.com\",\"Nata_1234\",\"123123213\")",
  "children": [
    "6c099ef5-2e69-4382-8af0-ea1e023385e6-tr-0-1010"
  ],
  "befores": [
    {
      "name": "SetUp",
      "status": "passed",
      "statusDetails": {
        "known": false,
        "muted": false,
        "flaky": false
      },
      "stage": "finished",
      "steps": [],
      "attachments": [],
      "parameters": [],
      "start": 1636577068429,
      "stop": 1636577068429
    }
  ],
  "afters": [
    {
      "name": "TearDown",
      "status": "passed",
      "statusDetails": {
        "known": false,
        "muted": false,
        "flaky": false
      },
      "stage": "finished",
      "steps": [],
      "attachments": [],
      "parameters": [],
      "start": 1636577068430,
      "stop": 1636577068430
    },
    {
      "name": "OneTimeTearDown",
      "status": "none",
      "statusDetails": {
        "known": false,
        "muted": false,
        "flaky": false,
        "message": "It's not possible to get status of OneTimeTearDown",
        "trace": "See Allure.NUnit wiki"
      },
      "stage": "finished",
      "steps": [],
      "attachments": [],
      "parameters": [],
      "start": 1636577068430,
      "stop": 1636577068430
    }
  ],
  "links": [],
  "start": 1636577058192,
  "stop": 1636577068499
}